{
  "_fv": 28,
  "_type": "item",
  "definition": {
    "renderType": 0,
    "texture": "bonite_pple",
    "customModelName": "Normal",
    "name": "Ebonite Apple",
    "rarity": "COMMON",
    "creativeTab": {
      "value": "CUSTOM:Demleh"
    },
    "stackSize": 64,
    "enchantability": 0,
    "useDuration": 32,
    "toolType": 0.0,
    "damageCount": 0,
    "destroyAnyBlock": false,
    "immuneToFire": false,
    "stayInGridWhenCrafting": false,
    "damageOnCrafting": false,
    "enableMeleeDamage": false,
    "damageVsEntity": 0.0,
    "specialInfo": [],
    "hasGlow": false,
    "inventorySize": 9,
    "inventoryStackSize": 64,
    "onFinishUsingItem": {
      "name": "EboniteAppleFoodEaten"
    },
    "hasDispenseBehavior": false,
    "isFood": true,
    "nutritionalValue": 12,
    "saturation": 10.0,
    "isMeat": false,
    "isAlwaysEdible": true,
    "animation": "eat"
  }
}