{
  "_fv": 28,
  "_type": "recipe",
  "definition": {
    "recipeType": "Smelting",
    "xpReward": 0.0,
    "cookingTime": 200,
    "recipeRetstackSize": 1,
    "group": "",
    "recipeShapeless": false,
    "smeltingInputStack": {
      "value": "CUSTOM:EboniteOre"
    },
    "smeltingReturnStack": {
      "value": "CUSTOM:Ebonite"
    },
    "name": "ebonitecraft",
    "namespace": "mod"
  }
}