{
  "_fv": 28,
  "_type": "tool",
  "definition": {
    "renderType": 0,
    "texture": "ebonitecollector",
    "customModelName": "Normal",
    "name": "Ebonite Collector",
    "specialInfo": [],
    "creativeTab": {
      "value": "CUSTOM:Demleh"
    },
    "toolType": "Pickaxe",
    "harvestLevel": 8,
    "efficiency": 14.0,
    "attackSpeed": 1.0,
    "enchantability": 2,
    "damageVsEntity": 4.0,
    "usageCount": 100,
    "blocksAffected": [],
    "hasGlow": false,
    "repairItems": [],
    "immuneToFire": false,
    "stayInGridWhenCrafting": false,
    "damageOnCrafting": false
  }
}