{
  "_fv": 28,
  "_type": "achievement",
  "definition": {
    "achievementName": "Ebonite Found!",
    "achievementDescription": "Best of the best!",
    "achievementIcon": {
      "value": "CUSTOM:Ebonite"
    },
    "background": "Default",
    "disableDisplay": false,
    "showPopup": true,
    "announceToChat": true,
    "hideIfNotCompleted": false,
    "rewardLoot": [],
    "rewardRecipes": [],
    "rewardFunction": "No function",
    "rewardXP": 20,
    "achievementType": "challenge",
    "parent": {
      "value": "CUSTOM:AmazoniteFirstTime"
    },
    "triggerxml": "<xml xmlns=\"https://developers.google.com/blockly/xml\"><block type=\"custom_trigger\" x=\"28\" y=\"45\"><next><block type=\"advancement_trigger\" deletable=\"false\"/></next></block></xml>"
  }
}