{
  "_fv": 28,
  "_type": "procedure",
  "definition": {
    "procedurexml": "<?xml version=\"1.0\" encoding=\"UTF-8\" standalone=\"no\"?><xml xmlns=\"https://developers.google.com/blockly/xml\"><block deletable=\"false\" type=\"event_trigger\" x=\"-226\" y=\"218\"><field name=\"trigger\">no_ext_trigger</field><next><block type=\"move_entity\"><value name=\"entity\"><block type=\"entity_from_deps\"/></value><value name=\"x\"><block type=\"entity_lookpos_x\"><field name=\"fluid_mode\">NONE</field><field name=\"block_mode\">OUTLINE</field><value name=\"entity\"><block type=\"entity_from_deps\"/></value><value name=\"maxdistance\"><block type=\"math_number\"><field name=\"NUM\">75</field></block></value></block></value><value name=\"y\"><block type=\"math_dual_ops\"><field name=\"OP\">ADD</field><value name=\"A\"><block type=\"entity_lookpos_y\"><field name=\"fluid_mode\">NONE</field><field name=\"block_mode\">OUTLINE</field><value name=\"entity\"><block type=\"entity_from_deps\"/></value><value name=\"maxdistance\"><block type=\"math_number\"><field name=\"NUM\">75</field></block></value></block></value><value name=\"B\"><block type=\"math_number\"><field name=\"NUM\">1</field></block></value></block></value><value name=\"z\"><block type=\"entity_lookpos_z\"><field name=\"fluid_mode\">NONE</field><field name=\"block_mode\">OUTLINE</field><value name=\"entity\"><block type=\"entity_from_deps\"/></value><value name=\"maxdistance\"><block type=\"math_number\"><field name=\"NUM\">75</field></block></value></block></value><next><block type=\"play_sound\"><field name=\"sound\">entity.endermen.teleport</field><value name=\"x\"><block type=\"entity_lookpos_x\"><field name=\"fluid_mode\">NONE</field><field name=\"block_mode\">OUTLINE</field><value name=\"entity\"><block type=\"entity_from_deps\"/></value><value name=\"maxdistance\"><block type=\"math_number\"><field name=\"NUM\">76</field></block></value></block></value><value name=\"y\"><block type=\"entity_lookpos_y\"><field name=\"fluid_mode\">NONE</field><field name=\"block_mode\">OUTLINE</field><value name=\"entity\"><block type=\"entity_from_deps\"/></value><value name=\"maxdistance\"><block type=\"math_number\"><field name=\"NUM\">76</field></block></value></block></value><value name=\"z\"><block type=\"entity_lookpos_z\"><field name=\"fluid_mode\">NONE</field><field name=\"block_mode\">OUTLINE</field><value name=\"entity\"><block type=\"entity_from_deps\"/></value><value name=\"maxdistance\"><block type=\"math_number\"><field name=\"NUM\">76</field></block></value></block></value><value name=\"level\"><block type=\"math_number\"><field name=\"NUM\">2</field></block></value><value name=\"pitch\"><block type=\"math_number\"><field name=\"NUM\">1</field></block></value><next><block type=\"item_cooldown_for\"><value name=\"item\"><block type=\"itemstack_to_mcitem\"/></value><value name=\"ticks\"><block type=\"math_number\"><field name=\"NUM\">200</field></block></value><value name=\"entity\"><block type=\"entity_from_deps\"/></value></block></next></block></next></block></next></block></xml>"
  }
}