{
  "_fv": 28,
  "_type": "tool",
  "definition": {
    "renderType": 0,
    "texture": "faux",
    "customModelName": "Normal",
    "name": "Faux Interdite",
    "specialInfo": [],
    "creativeTab": {
      "value": "CUSTOM:Demleh"
    },
    "toolType": "Sword",
    "harvestLevel": 1,
    "efficiency": 4.0,
    "attackSpeed": 1.0,
    "enchantability": 20,
    "damageVsEntity": 2.0,
    "usageCount": 20,
    "blocksAffected": [],
    "hasGlow": false,
    "repairItems": [],
    "immuneToFire": false,
    "stayInGridWhenCrafting": false,
    "damageOnCrafting": false,
    "onEntityHitWith": {
      "name": "FauxInterditeProcedure"
    }
  }
}