{
  "_fv": 28,
  "_type": "tool",
  "definition": {
    "renderType": 0,
    "texture": "souffre_axe",
    "customModelName": "Normal",
    "name": "Souffre axe",
    "specialInfo": [],
    "creativeTab": {
      "value": "CUSTOM:Demleh"
    },
    "toolType": "Axe",
    "harvestLevel": 9,
    "efficiency": 11.0,
    "attackSpeed": 1.0,
    "enchantability": 2,
    "damageVsEntity": 5.5,
    "usageCount": 2500,
    "blocksAffected": [],
    "hasGlow": false,
    "repairItems": [],
    "immuneToFire": false,
    "stayInGridWhenCrafting": false,
    "damageOnCrafting": false
  }
}