{
  "_fv": 28,
  "_type": "procedure",
  "definition": {
    "procedurexml": "<?xml version=\"1.0\" encoding=\"UTF-8\" standalone=\"no\"?><xml xmlns=\"https://developers.google.com/blockly/xml\"><block deletable=\"false\" type=\"event_trigger\" x=\"40\" y=\"40\"><field name=\"trigger\">no_ext_trigger</field><next><block type=\"entity_add_xp\"><value name=\"xpamount\"><block type=\"math_number\"><field name=\"NUM\">4</field></block></value><value name=\"entity\"><block type=\"entity_from_deps\"/></value></block></next></block></xml>"
  }
}