{
  "_fv": 28,
  "_type": "procedure",
  "definition": {
    "procedurexml": "<?xml version=\"1.0\" encoding=\"UTF-8\" standalone=\"no\"?><xml xmlns=\"https://developers.google.com/blockly/xml\"><variables><variable id=\"randomNumber\" type=\"Number\">randomNumber</variable></variables><block deletable=\"false\" type=\"event_trigger\" x=\"40\" y=\"40\"><field name=\"trigger\">no_ext_trigger</field><next><block type=\"controls_if\"><mutation elseif=\"1\"/><value name=\"IF0\"><block type=\"compare_mcblocks\"><value name=\"a\"><block type=\"world_data_blockat\"><value name=\"x\"><block type=\"coord_x\"/></value><value name=\"y\"><block type=\"coord_y\"/></value><value name=\"z\"><block type=\"coord_z\"/></value></block></value><value name=\"b\"><block type=\"mcitem_allblocks\"><field name=\"value\">CUSTOM:XPBushStage3</field><comment h=\"32\" pinned=\"false\" w=\"166\">Blackberry Bush Stage 3</comment></block></value></block></value><statement name=\"DO0\"><block type=\"controls_if\"><value name=\"IF0\"><block type=\"logic_negate\"><value name=\"BOOL\"><block type=\"world_data_isremote\"/></value></block></value><statement name=\"DO0\"><block type=\"variables_set_number\"><field name=\"VAR\">local:randomNumber</field><value name=\"VAL\"><block type=\"math_java_constants\"><field name=\"CONSTANT\">RANDOM</field></block></value><next><block type=\"controls_if\"><mutation else=\"1\" elseif=\"1\"/><value name=\"IF0\"><block type=\"math_binary_ops\"><field name=\"OP\">GTE</field><value name=\"A\"><block type=\"variables_get_number\"><field name=\"VAR\">local:randomNumber</field></block></value><value name=\"B\"><block type=\"math_number\"><field name=\"NUM\">0.66</field></block></value></block></value><statement name=\"DO0\"><block type=\"controls_repeat_ext\"><value name=\"TIMES\"><block type=\"math_number\"><field name=\"NUM\">3</field></block></value><statement name=\"DO\"><block type=\"spawn_gem\"><value name=\"block\"><block type=\"mcitem_all\"><field name=\"value\">CUSTOM:XPBerry</field><comment h=\"32\" pinned=\"false\" w=\"141\">Blackberry Food Item</comment></block></value><value name=\"x\"><block type=\"math_dual_ops\"><field name=\"OP\">ADD</field><value name=\"A\"><block type=\"coord_x\"/></value><value name=\"B\"><block type=\"math_number\"><field name=\"NUM\">0.05</field></block></value></block></value><value name=\"y\"><block type=\"math_dual_ops\"><field name=\"OP\">ADD</field><value name=\"A\"><block type=\"coord_y\"/></value><value name=\"B\"><block type=\"math_number\"><field name=\"NUM\">0.05</field></block></value></block></value><value name=\"z\"><block type=\"math_dual_ops\"><field name=\"OP\">ADD</field><value name=\"A\"><block type=\"coord_z\"/></value><value name=\"B\"><block type=\"math_number\"><field name=\"NUM\">0.05</field></block></value></block></value><value name=\"pickUpDelay\"><block type=\"math_number\"><field name=\"NUM\">10</field></block></value></block></statement></block></statement><value name=\"IF1\"><block type=\"math_binary_ops\"><field name=\"OP\">GTE</field><value name=\"A\"><block type=\"variables_get_number\"><field name=\"VAR\">local:randomNumber</field></block></value><value name=\"B\"><block type=\"math_number\"><field name=\"NUM\">0.33</field></block></value></block></value><statement name=\"DO1\"><block type=\"controls_repeat_ext\"><value name=\"TIMES\"><block type=\"math_number\"><field name=\"NUM\">2</field></block></value><statement name=\"DO\"><block type=\"spawn_gem\"><value name=\"block\"><block type=\"mcitem_all\"><field name=\"value\">CUSTOM:XPBerry</field><comment h=\"32\" pinned=\"false\" w=\"141\">Blackberry Food Item</comment></block></value><value name=\"x\"><block type=\"math_dual_ops\"><field name=\"OP\">ADD</field><value name=\"A\"><block type=\"coord_x\"/></value><value name=\"B\"><block type=\"math_number\"><field name=\"NUM\">0.05</field></block></value></block></value><value name=\"y\"><block type=\"math_dual_ops\"><field name=\"OP\">ADD</field><value name=\"A\"><block type=\"coord_y\"/></value><value name=\"B\"><block type=\"math_number\"><field name=\"NUM\">0.05</field></block></value></block></value><value name=\"z\"><block type=\"math_dual_ops\"><field name=\"OP\">ADD</field><value name=\"A\"><block type=\"coord_z\"/></value><value name=\"B\"><block type=\"math_number\"><field name=\"NUM\">0.05</field></block></value></block></value><value name=\"pickUpDelay\"><block type=\"math_number\"><field name=\"NUM\">10</field></block></value></block></statement></block></statement><statement name=\"ELSE\"><block type=\"spawn_gem\"><value name=\"block\"><block type=\"mcitem_all\"><field name=\"value\">CUSTOM:XPBerry</field><comment h=\"32\" pinned=\"false\" w=\"141\">Blackberry Food Item</comment></block></value><value name=\"x\"><block type=\"math_dual_ops\"><field name=\"OP\">ADD</field><value name=\"A\"><block type=\"coord_x\"/></value><value name=\"B\"><block type=\"math_number\"><field name=\"NUM\">0.05</field></block></value></block></value><value name=\"y\"><block type=\"math_dual_ops\"><field name=\"OP\">ADD</field><value name=\"A\"><block type=\"coord_y\"/></value><value name=\"B\"><block type=\"math_number\"><field name=\"NUM\">0.05</field></block></value></block></value><value name=\"z\"><block type=\"math_dual_ops\"><field name=\"OP\">ADD</field><value name=\"A\"><block type=\"coord_z\"/></value><value name=\"B\"><block type=\"math_number\"><field name=\"NUM\">0.05</field></block></value></block></value><value name=\"pickUpDelay\"><block type=\"math_number\"><field name=\"NUM\">10</field></block></value></block></statement><next><block type=\"play_sound\"><field name=\"sound\">item.sweet_berries.pick_from_bush</field><value name=\"x\"><block type=\"coord_x\"/></value><value name=\"y\"><block type=\"coord_y\"/></value><value name=\"z\"><block type=\"coord_z\"/></value><value name=\"level\"><block type=\"math_number\"><field name=\"NUM\">1</field></block></value><value name=\"pitch\"><block type=\"math_number\"><field name=\"NUM\">1</field></block></value><next><block type=\"block_replace\"><field name=\"state\">TRUE</field><field name=\"nbt\">FALSE</field><value name=\"x\"><block type=\"coord_x\"/></value><value name=\"y\"><block type=\"coord_y\"/></value><value name=\"z\"><block type=\"coord_z\"/></value><value name=\"block\"><block type=\"mcitem_allblocks\"><field name=\"value\">CUSTOM:XPBushStage0</field><comment h=\"32\" pinned=\"false\" w=\"162\">Blackberry Bush Stage 0</comment></block></value></block></next></block></next></block></next></block></statement></block></statement><value name=\"IF1\"><block type=\"compare_mcblocks\"><value name=\"a\"><block type=\"world_data_blockat\"><value name=\"x\"><block type=\"coord_x\"/></value><value name=\"y\"><block type=\"coord_y\"/></value><value name=\"z\"><block type=\"coord_z\"/></value></block></value><value name=\"b\"><block type=\"mcitem_allblocks\"><field name=\"value\">CUSTOM:XPBushStage3</field><comment h=\"32\" pinned=\"false\" w=\"160\">Blackberry Bush Stage 2</comment></block></value></block></value><statement name=\"DO1\"><block type=\"spawn_gem\"><value name=\"block\"><block type=\"mcitem_all\"><field name=\"value\">CUSTOM:XPBerry</field><comment h=\"32\" pinned=\"false\" w=\"141\">Blackberry Food Item</comment></block></value><value name=\"x\"><block type=\"math_dual_ops\"><field name=\"OP\">ADD</field><value name=\"A\"><block type=\"coord_x\"/></value><value name=\"B\"><block type=\"math_number\"><field name=\"NUM\">0.05</field></block></value></block></value><value name=\"y\"><block type=\"math_dual_ops\"><field name=\"OP\">ADD</field><value name=\"A\"><block type=\"coord_y\"/></value><value name=\"B\"><block type=\"math_number\"><field name=\"NUM\">0.05</field></block></value></block></value><value name=\"z\"><block type=\"math_dual_ops\"><field name=\"OP\">ADD</field><value name=\"A\"><block type=\"coord_z\"/></value><value name=\"B\"><block type=\"math_number\"><field name=\"NUM\">0.05</field></block></value></block></value><next><block type=\"play_sound\"><field name=\"sound\">item.sweet_berries.pick_from_bush</field><value name=\"x\"><block type=\"coord_x\"/></value><value name=\"y\"><block type=\"coord_y\"/></value><value name=\"z\"><block type=\"coord_z\"/></value><value name=\"level\"><block type=\"math_number\"><field name=\"NUM\">1</field></block></value><value name=\"pitch\"><block type=\"math_number\"><field name=\"NUM\">1</field></block></value><next><block type=\"block_replace\"><field name=\"state\">TRUE</field><field name=\"nbt\">FALSE</field><value name=\"x\"><block type=\"coord_x\"/></value><value name=\"y\"><block type=\"coord_y\"/></value><value name=\"z\"><block type=\"coord_z\"/></value><value name=\"block\"><block type=\"mcitem_allblocks\"><field name=\"value\">CUSTOM:XPBushStage0</field><comment h=\"32\" pinned=\"false\" w=\"162\">Blackberry Bush Stage 0</comment></block></value></block></next></block></next><value name=\"pickUpDelay\"><block type=\"math_number\"><field name=\"NUM\">10</field></block></value></block></statement></block></next></block></xml>"
  }
}